[gd_scene load_steps=2 format=2]

[ext_resource path="res://minigames/kernel_compiling/player_kernel_compiling.gd" type="Script" id=1]

[node name="Player" type="Spatial" index="0" groups=[
"players",
]]

script = ExtResource( 1 )

[node name="Model" type="Spatial" parent="." index="0"]

[node name="PenalityTimer" type="Timer" parent="." index="1"]

process_mode = 1
wait_time = 0.5
one_shot = true
autostart = false

[connection signal="timeout" from="PenalityTimer" to="." method="_on_PenalityTimer_timeout"]


