[gd_scene load_steps=2 format=2]

[ext_resource path="res://minigames/hurdle/player_hurdle.gd" type="Script" id=1]

[node name="Player" type="KinematicBody" index="0" groups=[
"players",
]]

input_ray_pickable = true
input_capture_on_drag = false
collision_layer = 4
collision_mask = 3
axis_lock_linear_x = false
axis_lock_linear_y = false
axis_lock_linear_z = false
axis_lock_angular_x = false
axis_lock_angular_y = false
axis_lock_angular_z = false
collision/safe_margin = 0.001
script = ExtResource( 1 )

[node name="Shape" type="CollisionShape" parent="." index="0"]

transform = Transform( 1, 0, 0, 0, -4.37114e-08, -1, 0, 1, -4.37114e-08, 0, 0.4, 0 )
shape = null
disabled = false
_sections_unfolded = [ "Transform" ]

[node name="Model" type="Spatial" parent="." index="1"]

_sections_unfolded = [ "Transform" ]


